<?xml version="1.0" encoding="UTF-8" standalone="no"?>
<!-- Generator: Adobe Illustrator 19.0.0, SVG Export Plug-In . SVG Version: 6.00 Build 0)  -->

<svg
   xmlns:dc="http://purl.org/dc/elements/1.1/"
   xmlns:cc="http://creativecommons.org/ns#"
   xmlns:rdf="http://www.w3.org/1999/02/22-rdf-syntax-ns#"
   xmlns:svg="http://www.w3.org/2000/svg"
   xmlns="http://www.w3.org/2000/svg"
   xmlns:sodipodi="http://sodipodi.sourceforge.net/DTD/sodipodi-0.dtd"
   xmlns:inkscape="http://www.inkscape.org/namespaces/inkscape"
   version="1.1"
   id="Capa_1"
   x="0px"
   y="0px"
   viewBox="0 0 512 511.21399"
   xml:space="preserve"
   inkscape:version="0.91 r13725"
   sodipodi:docname="review.svg"
   width="512"
   height="511.21399"><metadata
     id="metadata43"><rdf:RDF><cc:Work
         rdf:about=""><dc:format>image/svg+xml</dc:format><dc:type
           rdf:resource="http://purl.org/dc/dcmitype/StillImage" /><dc:title></dc:title></cc:Work></rdf:RDF></metadata><defs
     id="defs41" /><sodipodi:namedview
     pagecolor="#ffffff"
     bordercolor="#666666"
     borderopacity="1"
     objecttolerance="10"
     gridtolerance="10"
     guidetolerance="10"
     inkscape:pageopacity="0"
     inkscape:pageshadow="2"
     inkscape:window-width="1920"
     inkscape:window-height="1054"
     id="namedview39"
     showgrid="false"
     fit-margin-top="0"
     fit-margin-left="0"
     fit-margin-right="0"
     fit-margin-bottom="0"
     inkscape:zoom="0.4609375"
     inkscape:cx="260.33898"
     inkscape:cy="255.607"
     inkscape:window-x="0"
     inkscape:window-y="0"
     inkscape:window-maximized="1"
     inkscape:current-layer="Capa_1" /><g
     id="g3"
     style="fill:#f9f9f9"
     transform="translate(0,-0.393)"><g
       id="g5"
       style="fill:#f9f9f9"><path
         d="m 452,120.393 0,-60 -60,0 0,-60 -392,0 0,260 60,0 0,60 60,0 0,60 210.787,0 131.213,131.214 0,-131.214 50,0 0,-260 -60,0 z m -392,110 -30,0 0,-200 332,0 0,30 -302,0 0,170 z m 60,60 -30,0 0,-200 332,0 0,30 -302,0 0,170 z m 312,148.787 -58.787,-58.787 58.787,0 0,58.787 z m 50,-88.787 -332,0 0,-200 332,0 0,200 z"
         id="path7"
         style="fill:#f9f9f9"
         inkscape:connector-curvature="0" /></g></g><g
     id="g9"
     transform="translate(0,-0.393)" /><g
     id="g11"
     transform="translate(0,-0.393)" /><g
     id="g13"
     transform="translate(0,-0.393)" /><g
     id="g15"
     transform="translate(0,-0.393)" /><g
     id="g17"
     transform="translate(0,-0.393)" /><g
     id="g19"
     transform="translate(0,-0.393)" /><g
     id="g21"
     transform="translate(0,-0.393)" /><g
     id="g23"
     transform="translate(0,-0.393)" /><g
     id="g25"
     transform="translate(0,-0.393)" /><g
     id="g27"
     transform="translate(0,-0.393)" /><g
     id="g29"
     transform="translate(0,-0.393)" /><g
     id="g31"
     transform="translate(0,-0.393)" /><g
     id="g33"
     transform="translate(0,-0.393)" /><g
     id="g35"
     transform="translate(0,-0.393)" /><g
     id="g37"
     transform="translate(0,-0.393)" /></svg>